{
    "name": "ControlMove",
    "maps": [
        {
            "name": "ControllGeneric",
            "id": "67aa0fd7-f331-48ee-9220-9a65830ec5ae",
            "actions": [
                {
                    "name": "walkup",
                    "type": "Button",
                    "id": "6cca1550-105c-4108-881a-98f9a380b7df",
                    "expectedControlType": "Button",
                    "processors": "",
                    "interactions": "Press"
                },
                {
                    "name": "walkdown",
                    "type": "Button",
                    "id": "f69203a4-9cf2-45ad-af3a-d404094042b6",
                    "expectedControlType": "Button",
                    "processors": "",
                    "interactions": ""
                },
                {
                    "name": "walkleft",
                    "type": "Button",
                    "id": "120a6c7a-e57b-4685-b232-7bc35a3702fe",
                    "expectedControlType": "Button",
                    "processors": "",
                    "interactions": ""
                },
                {
                    "name": "walkright",
                    "type": "Button",
                    "id": "aee94167-824e-4a98-96c6-970871afe3f5",
                    "expectedControlType": "Button",
                    "processors": "",
                    "interactions": ""
                },
                {
                    "name": "jump",
                    "type": "Button",
                    "id": "da0501b7-351a-4f24-8ce4-b21c86dda601",
                    "expectedControlType": "Button",
                    "processors": "",
                    "interactions": ""
                }
            ],
            "bindings": [
                {
                    "name": "",
                    "id": "5ef41f25-4a19-4a90-be1b-46651e789658",
                    "path": "<XInputController>/leftStick/right",
                    "interactions": "",
                    "processors": "",
                    "groups": "",
                    "action": "walkup",
                    "isComposite": false,
                    "isPartOfComposite": false
                },
                {
                    "name": "",
                    "id": "70b7aa1e-0ee2-44aa-8dbc-eb3010a30708",
                    "path": "<Joystick>/stick/up",
                    "interactions": "",
                    "processors": "",
                    "groups": "",
                    "action": "walkup",
                    "isComposite": false,
                    "isPartOfComposite": false
                },
                {
                    "name": "",
                    "id": "aef577d3-050e-4888-a0a3-e3ad6b6bb010",
                    "path": "<Gamepad>/leftStick/up",
                    "interactions": "",
                    "processors": "",
                    "groups": "",
                    "action": "walkup",
                    "isComposite": false,
                    "isPartOfComposite": false
                },
                {
                    "name": "",
                    "id": "03bed6b9-9f6e-4bc2-81d4-5b0a227e0c36",
                    "path": "<XInputController>/leftStick/down",
                    "interactions": "",
                    "processors": "",
                    "groups": "",
                    "action": "walkdown",
                    "isComposite": false,
                    "isPartOfComposite": false
                },
                {
                    "name": "",
                    "id": "c5dfbc05-13cb-40f2-bc34-1eb916a79d19",
                    "path": "<Joystick>/stick/down",
                    "interactions": "",
                    "processors": "",
                    "groups": "",
                    "action": "walkdown",
                    "isComposite": false,
                    "isPartOfComposite": false
                },
                {
                    "name": "",
                    "id": "3d5ddb88-8219-4029-9e65-deb6d9444132",
                    "path": "<Gamepad>/leftStick/down",
                    "interactions": "",
                    "processors": "",
                    "groups": "",
                    "action": "walkdown",
                    "isComposite": false,
                    "isPartOfComposite": false
                },
                {
                    "name": "",
                    "id": "ae0bcd3b-e708-4865-a574-9f7437623925",
                    "path": "<XInputController>/leftStick/left",
                    "interactions": "",
                    "processors": "",
                    "groups": "",
                    "action": "walkleft",
                    "isComposite": false,
                    "isPartOfComposite": false
                },
                {
                    "name": "",
                    "id": "10f109f8-1bc1-4e1f-9759-d1095a2108a6",
                    "path": "<Joystick>/stick/left",
                    "interactions": "",
                    "processors": "",
                    "groups": "",
                    "action": "walkleft",
                    "isComposite": false,
                    "isPartOfComposite": false
                },
                {
                    "name": "",
                    "id": "d2bf5807-4eab-47b6-89de-9ba725d5eb20",
                    "path": "<Gamepad>/leftStick/left",
                    "interactions": "",
                    "processors": "",
                    "groups": "",
                    "action": "walkleft",
                    "isComposite": false,
                    "isPartOfComposite": false
                },
                {
                    "name": "",
                    "id": "cc227ddf-e93f-411d-accb-2063ee64da6c",
                    "path": "<XInputController>/leftStick/right",
                    "interactions": "",
                    "processors": "",
                    "groups": "",
                    "action": "walkright",
                    "isComposite": false,
                    "isPartOfComposite": false
                },
                {
                    "name": "",
                    "id": "e52da95a-bbb1-4cc0-b62b-0a8d3ce2df72",
                    "path": "<Joystick>/stick/right",
                    "interactions": "",
                    "processors": "",
                    "groups": "",
                    "action": "walkright",
                    "isComposite": false,
                    "isPartOfComposite": false
                },
                {
                    "name": "",
                    "id": "db57a8f1-61bb-4488-b326-0945fe424e73",
                    "path": "<Gamepad>/leftStick/right",
                    "interactions": "",
                    "processors": "",
                    "groups": "",
                    "action": "walkright",
                    "isComposite": false,
                    "isPartOfComposite": false
                },
                {
                    "name": "",
                    "id": "d59a020d-96dd-417b-ab5f-3f2767b57c27",
                    "path": "<XInputController>/buttonSouth",
                    "interactions": "",
                    "processors": "",
                    "groups": "",
                    "action": "jump",
                    "isComposite": false,
                    "isPartOfComposite": false
                },
                {
                    "name": "",
                    "id": "9d66f24d-9a83-473d-b3e1-eb32597a26eb",
                    "path": "<HID::DragonRise Inc.   Generic   USB  Joystick  >/button3",
                    "interactions": "",
                    "processors": "",
                    "groups": "",
                    "action": "jump",
                    "isComposite": false,
                    "isPartOfComposite": false
                },
                {
                    "name": "",
                    "id": "efe8e9d7-d351-41e7-9a85-918435ae8326",
                    "path": "<Gamepad>/buttonSouth",
                    "interactions": "",
                    "processors": "",
                    "groups": "",
                    "action": "jump",
                    "isComposite": false,
                    "isPartOfComposite": false
                }
            ]
        }
    ],
    "controlSchemes": []
}